OrderID,Street,State,Zip,TotalComparables,TotalComparablesWithImage
2264989,921 Rockdale Ave,MA,02740,300,283
2264993,207 Elm St,NY,10310,300,294
2265039,31 Lillian Rd,MA,02420,300,258
2265067,25 King St,RI,02911,300,294
2265075,29 Roosevelt Ave,MA,02045,289,262
2265093,268 Camp Strause Rd,PA,17026,12,9
2265149,18 Whitewood Rd,MA,01757,257,244
2265223,417 Wedgewood Ln,PA,19063,1,0
2265565,21 Woodman Way,MA,01950,254,240
2265711,80 Sleepy Hollow Dr,RI,02864,163,159
2265825,319 Medford St,MA,02148,300,258