OrderID,Street,State,Zip,TotalComparables,TotalComparablesWithImage
2255979,717 Oakland Ave,NY,10310,17,17
2255981,5327 Windtree Dr,PA,18902,0,0
2255983,841 Smith Dr,PA,17408,8,3
2255985,1025 Beverly Ln,PA,19073,0,0
2255987,434 Westervelt Ave,NY,10301,2,2
2255989,142 Hawk Ln,PA,17522,121,120
2255991,6 Minot Ave,MA,01720,293,255
2256007,17 Luongo Sq,RI,02903,300,293
2256139,288 Nelson St,RI,02908,300,292
2256213,10 Marial Dr,MA,02748,120,104
2256217,980 Providence Rd,MA,01588,177,160
2256221,110 Gallatin St,RI,02907,300,293
2256501,6 Woodland Rd,PA,18940,0,0
2256509,57 Damon Ave,MA,02176,300,262
2256511,236 Commonwealth Ave Apt 1,MA,02116,300,278
2256521,265 Collfield Ave,NY,10314,0,0
2256553,110 Russells Way,MA,01886,178,166
2256603,2324 Henderson St,PA,18017,11,11
2256625,75 Angell Ave,RI,02911,300,296
2256631,41 South Meadow Ln,RI,02806,266,263
2256633,348 Rumstick Rd,RI,02806,254,252
2256741,40 Fountain Rd,MA,02476,300,257
2256863,69 Dale St,MA,02119,300,281
2257105,9 3rd Ave,PA,19355,0,0
2257123,102 N Main St,MA,02702,71,67
2257125,613 School St,MA,02764,177,169
2257621,115 Highland St,MA,01520,164,152
2257883,18 Whitewood Rd,MA,01757,257,244
2257911,27 Forest Ave,NY,10301,2,2
2257915,19 Augusta Way,MA,02664,300,286
2257925,399 Glory Way,PA,17545,70,69
2258469,31 Hylan Blvd Apt 7A,NY,10305,2,2
2258473,33 Corning St,MA,01915,300,276
2258475,8 Vine St Apt 2,MA,01915,71,69
2258479,4 Ross Ln,NY,10312,0,0
2258887,98 Dam St,RI,02879,154,153
2258997,257 S Norwinden Dr,PA,19064,2,2
2258999,1639 Aidenn Lair Rd,PA,19025,0,0
2259011,284 Circuit St,MA,02339,123,116
2259279,6 New Ln Apt 4A,NY,10305,2,2
2259343,2944 Passmore St,PA,19149,1,1
2259375,24 Carolina Ct,NY,10314,0,0
2259405,138 Victoria Ln,MA,01420,137,127
2259459,212 Upper County Rd Apt 2B,MA,02639,300,286
2259607,367 Greenway Dr,PA,15235,300,295
2259701,29 Ray St,NY,10312,0,0
2259703,43199 W Central Ave,PA,16354,0,0
2259705,511 Clifton Ave,NY,10305,1,1
2259707,147 Brookdale St,MA,02364,171,153
2259709,27 Hillside Ave,RI,02919,300,293
2259765,12 Evie Dr,RI,02885,300,297
2259771,9 Lonsdale St,RI,02893,300,297
2260421,54 Florence Pl,NY,10309,0,0
2260423,8503 Glen Campbell Rd,PA,19128,0,0
2260425,8 Calvin St,MA,01432,148,136
2260427,133 Warren St,MA,02368,300,281
2260429,95 Beaver River Rd,RI,02892,36,36
2260443,520 Lioners Creek Rd,PA,17313,17,12
2260485,15 Sidney St,MA,02762,300,276
2260727,5331 Walton Ave,PA,19143,5,5
2260733,7305 N Sentinel Ln,PA,17403,13,5
2260741,94 Wenlock St,NY,10303,63,63
2260751,73 Fairlawn St,MA,01851,300,276
2260803,8503 Glen Campbell Rd,PA,19128,0,0
2260891,38 Meola Ave,MA,01606,258,236
2260939,1311 Narragansett St,PA,19138,1,1
2260943,1221 Narragansett Blvd,RI,02905,300,298
2260963,714 Crown St,PA,19067,24,23
2261123,2745 Quaker Ct,PA,17408,11,8
2261357,24 Guilford St,NY,10305,1,1
2261359,81 Sanford St,MA,02779,82,79
2261361,205 Woburn St,MA,02155,300,276
2261481,99 Brookwood Rd,NJ,07012,300,268
2261661,104 Andover Ct,PA,18951,2,2
2261729,4858 Sycamore Ave,PA,19053,0,0
2261847,555 Page St Unit 206,MA,02072,273,250
2261851,115 Earlington Rd,PA,19083,3,3
2261983,2604 S Hobson St,PA,19142,1,1
2261989,1139 Mason Ave,NY,10306,0,0
2261993,81 Emerson Gardens Rd,MA,02420,300,260
2262053,10 Ten Rod Rd,MA,01543,107,101
2262075,45 Colonial Ct,NY,10310,89,89
2262269,496 Huguenot Ave,NY,10312,0,0
2262277,57 W Plumstead Ave,PA,19050,4,4
2262317,624 Putnam Pike,RI,02828,123,119
2262319,100 Clark Ave,RI,02920,300,298
2262351,233 N 11th St,PA,18042,59,57
2262373,36 Tyler St,MA,02148,300,262
2262451,87 Lombard Ct,NY,10312,3,3
2262481,166 Hayward St,MA,02184,300,278
2262609,421 Richard Ave,NY,10309,0,0
2262617,15 Erin Ln,MA,01803,300,273
2262677,234 Chestnut St,MA,01887,244,223
2262681,50 Hill St,MA,01876,261,238
2262735,6 Ridgewood Rd,MA,01612,84,76
2262783,214 Pacific Ave,NY,10312,0,0
2262941,35 Old Dam Rd,MA,02532,260,253
2262963,35 Rhett Ave,NY,10308,0,0
2262971,700 Shore Dr Unit 501,MA,02721,300,261
2263033,113 N Ellsworth St,PA,18109,7,7
2263041,78 Candlewyck Dr,PA,17566,20,20
2263049,499 Tarrytown Ave,NY,10306,0,0
2263063,71 Cherry Ln,PA,18940,0,0
2263081,178B Kinsley St,NH,03060,300,290
2263085,515 S Yale St,PA,17403,21,14
2263159,12 Quail Ridge Dr,MA,01720,168,155
2263329,19 Augusta Way,MA,02664,300,286
2263519,196 Palmer Ave,NY,10302,242,239
2263547,285 S Great Rd,MA,01773,140,134
2263587,40 Carmel Ave,NY,10314,0,0
2263657,62 Hillyer Ln,PA,18940,0,0
2263831,1342 Swope Dr,PA,17007,17,2
2263839,9 Hooper Ave,NY,10306,0,0
2263851,68 Riverview Cir,MA,01778,287,263
2263855,12 Seth Davis Way,MA,02748,91,80
2264017,357 Fairway Ter,PA,19128,0,0
2264021,76 Central Ave,RI,02914,300,296
2264059,2 Greenbriar Dr Apt 208,MA,01864,209,193
2264131,117 Baboosic Lake Rd,NH,03054,119,118
2264275,224 Irene Ave,PA,17522,158,156
2264279,1401 Waterford Rd,PA,19067,0,0
2264285,52 Adams Ave,MA,02149,300,270
2264305,28 Errol St,RI,02888,300,298
2264541,3 Worcester Ct,MA,02540,229,212
2264545,1152 Pugh Rd,PA,19087,0,0
2264551,370 Wiese Rd,CT,06410,199,197
2264751,106 Alpine St,MA,02474,300,258
2264829,26 Tanglewood Dr,NY,10308,0,0
2264917,548 Drumgoole Rd W,NY,10312,0,0
2264943,161 Hawthorne Ct,PA,19610,11,10
2264989,921 Rockdale Ave,MA,02740,300,283
2264993,207 Elm St,NY,10310,300,294
2265039,31 Lillian Rd,MA,02420,300,258
2265067,25 King St,RI,02911,300,294
2265075,29 Roosevelt Ave,MA,02045,289,262
2265093,268 Camp Strause Rd,PA,17026,12,9
2265149,18 Whitewood Rd,MA,01757,257,244
2265223,417 Wedgewood Ln,PA,19063,1,0
2265565,21 Woodman Way,MA,01950,254,240
2265711,80 Sleepy Hollow Dr,RI,02864,163,159
2265825,319 Medford St,MA,02148,300,258